\relax 
\providecommand\hyper@newdestlabel[2]{}
\catcode `"\active 
\catcode `<\active 
\catcode `>\active 
\@nameuse{es@quoting}
\catcode `'\active 
\providecommand\HyperFirstAtBeginDocument{\AtBeginDocument}
\HyperFirstAtBeginDocument{\ifx\hyper@anchor\@undefined
\global\let\oldcontentsline\contentsline
\gdef\contentsline#1#2#3#4{\oldcontentsline{#1}{#2}{#3}}
\global\let\oldnewlabel\newlabel
\gdef\newlabel#1#2{\newlabelxx{#1}#2}
\gdef\newlabelxx#1#2#3#4#5#6{\oldnewlabel{#1}{{#2}{#3}}}
\AtEndDocument{\ifx\hyper@anchor\@undefined
\let\contentsline\oldcontentsline
\let\newlabel\oldnewlabel
\fi}
\fi}
\global\let\hyper@last\relax 
\gdef\HyperFirstAtBeginDocument#1{#1}
\providecommand\HyField@AuxAddToFields[1]{}
\providecommand\HyField@AuxAddToCoFields[2]{}
\select@language{spanish}
\@writefile{toc}{\select@language{spanish}}
\@writefile{lof}{\select@language{spanish}}
\@writefile{lot}{\select@language{spanish}}
\@writefile{toc}{\contentsline {chapter}{\numberline {1}Introducci'on}{4}{chapter.1}}
\@writefile{lof}{\addvspace {10\p@ }}
\@writefile{lot}{\addvspace {10\p@ }}
\@writefile{toc}{\contentsline {section}{\numberline {1.1}Introducci'on}{4}{section.1.1}}
\@writefile{toc}{\contentsline {subsection}{\numberline {1.1.1}?`Qu'e son los Exploit Kit?}{4}{subsection.1.1.1}}
\@writefile{lof}{\contentsline {figure}{\numberline {1.1}{\ignorespaces Flujo general de un Exploit Kit}}{5}{figure.1.1}}
\@writefile{toc}{\contentsline {subsection}{\numberline {1.1.2}Historia de los Exploit Kit}{5}{subsection.1.1.2}}
\@writefile{lof}{\contentsline {figure}{\numberline {1.2}{\ignorespaces Evoluci'on temporal en la aparici'on de nuevas familias de Exploit Kit}}{6}{figure.1.2}}
\newlabel{fig:evol}{{1.2}{6}{Evoluci'on temporal en la aparici'on de nuevas familias de Exploit Kit}{figure.1.2}{}}
\@writefile{lof}{\contentsline {figure}{\numberline {1.3}{\ignorespaces Campa\~nas activas de Exploit Kit en 2017}}{7}{figure.1.3}}
\@writefile{lof}{\contentsline {figure}{\numberline {1.4}{\ignorespaces Detecciones durante la navegaci'on web en un d'ia por soluciones Symantec}}{8}{figure.1.4}}
\newlabel{fig:det}{{1.4}{8}{Detecciones durante la navegaci'on web en un d'ia por soluciones Symantec}{figure.1.4}{}}
\@writefile{toc}{\contentsline {section}{\numberline {1.2}Motivaci'on}{8}{section.1.2}}
\@writefile{toc}{\contentsline {section}{\numberline {1.3}Objetivos y alcance}{9}{section.1.3}}
\@writefile{toc}{\contentsline {chapter}{\numberline {2}Antecedentes}{11}{chapter.2}}
\@writefile{lof}{\addvspace {10\p@ }}
\@writefile{lot}{\addvspace {10\p@ }}
\@writefile{toc}{\contentsline {section}{\numberline {2.1}Soluciones actuales}{11}{section.2.1}}
\newlabel{ant:maxwell}{{1}{11}{Soluciones actuales}{Item.9}{}}
\@writefile{toc}{\contentsline {chapter}{\numberline {3}Planificaci'on temporal}{13}{chapter.3}}
\@writefile{lof}{\addvspace {10\p@ }}
\@writefile{lot}{\addvspace {10\p@ }}
\@writefile{toc}{\contentsline {section}{\numberline {3.1}Diagrama de Gantt}{14}{section.3.1}}
\@writefile{toc}{\contentsline {section}{\numberline {3.2}Contratiempos y retrasos}{15}{section.3.2}}
\@writefile{toc}{\contentsline {section}{\numberline {3.3}Mejoras pendientes}{15}{section.3.3}}
\@writefile{toc}{\contentsline {chapter}{\numberline {4}An'alisis del sistema.}{17}{chapter.4}}
\@writefile{lof}{\addvspace {10\p@ }}
\@writefile{lot}{\addvspace {10\p@ }}
\@writefile{toc}{\contentsline {section}{\numberline {4.1}Actores}{17}{section.4.1}}
\@writefile{toc}{\contentsline {section}{\numberline {4.2}Flujo del sistema}{18}{section.4.2}}
\@writefile{toc}{\contentsline {subsection}{\numberline {4.2.1}ControllerServer}{18}{subsection.4.2.1}}
\@writefile{toc}{\contentsline {subsection}{\numberline {4.2.2}CrawlerAgents}{19}{subsection.4.2.2}}
\@writefile{toc}{\contentsline {subsection}{\numberline {4.2.3}AnalyzerAgents}{20}{subsection.4.2.3}}
\@writefile{toc}{\contentsline {section}{\numberline {4.3}Base de datos}{21}{section.4.3}}
\@writefile{lof}{\contentsline {figure}{\numberline {4.1}{\ignorespaces Arquitectura de la base de datos}}{21}{figure.4.1}}
\@writefile{toc}{\contentsline {section}{\numberline {4.4}Protocolo definido}{22}{section.4.4}}
\@writefile{toc}{\contentsline {chapter}{\numberline {5}Dise\~no: arquitectura y detalle.}{24}{chapter.5}}
\@writefile{lof}{\addvspace {10\p@ }}
\@writefile{lot}{\addvspace {10\p@ }}
\@writefile{toc}{\contentsline {section}{\numberline {5.1}Requisitos del sistema}{24}{section.5.1}}
\@writefile{toc}{\contentsline {section}{\numberline {5.2}Arquitectura}{24}{section.5.2}}
\@writefile{lof}{\contentsline {figure}{\numberline {5.1}{\ignorespaces Arquitectura del sistema}}{26}{figure.5.1}}
\@writefile{toc}{\contentsline {section}{\numberline {5.3}Detalles de implementaci'on}{27}{section.5.3}}
\@writefile{toc}{\contentsline {subsection}{\numberline {5.3.1}ControllerSever}{27}{subsection.5.3.1}}
\@writefile{toc}{\contentsline {subsection}{\numberline {5.3.2}CrawlerAgents}{28}{subsection.5.3.2}}
\@writefile{toc}{\contentsline {subsection}{\numberline {5.3.3}AnalyzerAgents}{30}{subsection.5.3.3}}
\@writefile{toc}{\contentsline {subsection}{\numberline {5.3.4}Indexer}{31}{subsection.5.3.4}}
\@writefile{toc}{\contentsline {chapter}{\numberline {6}Pruebas}{33}{chapter.6}}
\@writefile{lof}{\addvspace {10\p@ }}
\@writefile{lot}{\addvspace {10\p@ }}
\@writefile{toc}{\contentsline {section}{\numberline {6.1}Pruebas Indexer}{33}{section.6.1}}
\@writefile{toc}{\contentsline {section}{\numberline {6.2}Pruebas CrawlerAgent}{34}{section.6.2}}
\@writefile{toc}{\contentsline {section}{\numberline {6.3}Pruebas AnalyzerAgent}{36}{section.6.3}}
\@writefile{toc}{\contentsline {section}{\numberline {6.4}Pruebas ControllerServer}{37}{section.6.4}}
\@writefile{toc}{\contentsline {section}{\numberline {6.5}Pruebas de integraci'on}{38}{section.6.5}}
\@writefile{toc}{\contentsline {chapter}{\numberline {7}Conclusiones}{39}{chapter.7}}
\@writefile{lof}{\addvspace {10\p@ }}
\@writefile{lot}{\addvspace {10\p@ }}
\@writefile{toc}{\contentsline {section}{\numberline {7.1}Indexer}{39}{section.7.1}}
\@writefile{toc}{\contentsline {section}{\numberline {7.2}Crawler}{40}{section.7.2}}
\@writefile{toc}{\contentsline {section}{\numberline {7.3}Analyzer}{41}{section.7.3}}
\@writefile{toc}{\contentsline {section}{\numberline {7.4}Generales}{42}{section.7.4}}
\bibcite{MT}{1}
\bibcite{YR}{2}
\bibcite{NS}{3}
\bibcite{FS}{4}
\bibcite{MB}{5}
\bibcite{SA}{6}
\bibcite{K}{7}
\bibcite{S}{8}
\bibcite{TM}{9}
\bibcite{CB}{10}
\@writefile{toc}{\contentsline {chapter}{\numberline {A}Repositorio}{45}{appendix.Alph1}}
\@writefile{lof}{\addvspace {10\p@ }}
\@writefile{lot}{\addvspace {10\p@ }}
\newlabel{appendix:a}{{A}{45}{Repositorio}{appendix.Alph1}{}}
\@writefile{toc}{\contentsline {chapter}{\numberline {B}User agents recopilados}{46}{appendix.Alph2}}
\@writefile{lof}{\addvspace {10\p@ }}
\@writefile{lot}{\addvspace {10\p@ }}
\newlabel{appendix:b}{{B}{46}{User agents recopilados}{appendix.Alph2}{}}
\@writefile{toc}{\contentsline {chapter}{\numberline {C}Afectaci'on seg'un las regiones geogr'aficas}{48}{appendix.Alph3}}
\@writefile{lof}{\addvspace {10\p@ }}
\@writefile{lot}{\addvspace {10\p@ }}
\newlabel{appendix:c}{{C}{48}{Afectaci'on seg'un las regiones geogr'aficas}{appendix.Alph3}{}}
\@writefile{lof}{\contentsline {figure}{\numberline {C.1}{\ignorespaces Afectaci'on geogr'afica de los Exploit Kit en 2016}}{48}{figure.Alph3.1}}
\newlabel{LastPage}{{}{48}{}{page.48}{}}
\xdef\lastpage@lastpage{48}
\xdef\lastpage@lastpageHy{48}
